<svg width="31" height="32" viewBox="0 0 31 32" fill="none" xmlns="http://www.w3.org/2000/svg">
<path d="M0 20.3547H9.10392V31.5725H0V20.3547Z" fill="#5843BE"/>
<path d="M21.8494 20.3547H30.9533V31.5725H21.8494V20.3547Z" fill="#5843BE"/>
<path d="M10.9247 31.5726H20.0287C20.0287 30.9398 20.0287 14.0493 20.0287 13.0784H10.9247V31.5726ZM12.7455 22.1739H14.5663V18.5357H13.6559V16.7166H16.3871V22.1739H18.2079V23.993H12.7455V22.1739Z" fill="#5843BE"/>
<path d="M15.4767 0.601318L13.8057 4.02401L10.031 4.55403L12.7729 7.19949L12.1112 10.9499L15.4767 9.16205L18.8422 10.9499L18.1804 7.19949L20.9224 4.55403L17.1477 4.02401L15.4767 0.601318Z" fill="#5843BE"/>
</svg>
